ID_RAJON;NAZ_CAST;SCHRANKY;
8102008600;Frýdlant;194;V
8102008700;Frýdlant;350;V
8102008800;Frýdlant;499;V
8102008900;Frýdlant;560;V
8102009000;Frýdlant;751;V
8102009100;Frýdlant;149;V
8102009200;Frýdlant;528;V
8102004010;Frýdek;192;V
8102004020;Frýdek;262;V
8102004100;Frýdek;1090;V
8102004200;Frýdek;558;V
8102004310;Frýdek;157;V
8102004320;Frýdek;378;V
8102004400;Frýdek;493;V
8102004510;Frýdek;511;V
8102004600;Frýdek;686;V
8102004700;Frýdek;702;V
8102004800;Frýdek;503;V
8102004900;Frýdek;390;V
8102005000;Frýdek;572;V
8102005110;Frýdek;470;V
8102005200;Frýdek;322;V
8102005400;Frýdek;495;V
8102005500;Frýdek;492;V
8102005600;Frýdek;674;V
8102005700;Frýdek;591;V
8102005800;Frýdek;758;V
8102005900;Frýdek;515;V
8102006010;Frýdek;40;V
8102006020;Frýdek;381;V
8102006030;Frýdek;118;V
8102006300;Lískovec;353;V
8102006500;Místek;570;V
8102006600;Místek;63;V
8102006700;Místek;386;V
8102006800;Místek;568;V
8102006900;Místek;505;V
8102007000;Místek;701;V
8102007100;Místek;587;V
8102007200;Místek;157;V
8102007300;Místek;515;V
8102007400;Místek;616;V
8102007500;Místek;617;V
8102007610;Místek;409;V
8102007620;Místek;333;V
8102007700;Místek;537;V
8102007800;Místek;626;V
8102007900;Místek;384;V
8102008000;Místek;515;V
8102008100;Místek;576;V
8102008200;Místek;167;V
8103006500;Bludovice;869;V
8103006620;Bludovice;193;V
8103006610;Bludovice;111;V
8103006800;Dolní Suchá;498;V
8103007100;Město;74;V
8103007200;Město;640;V
8103007300;Město;399;V
8103007400;Město;615;V
8103007500;Město;631;V
8103007600;Město;533;V
8103007700;Město;759;V
8103007800;Město;528;V
8103007900;Město;671;V
8103008000;Město;661;V
8103008100;Město;624;V
8103008200;Lučina;57;V
8103008300;Lučina;955;V
8103008400;Lučina;608;V
8103008500;Lučina;440;V
8103008600;Lučina;600;V
8103008700;Město;535;V
8103008800;Město;628;V
8103008900;Město;432;V
8103009000;Město;648;V
8103009100;Město;489;V
8103009200;Město;566;V
8103009300;Město;484;V
8103009400;Město;434;V
8103009500;Město;536;V
8103009600;Podlesí;679;V
8103009700;Podlesí;456;V
8103009800;Podlesí;505;V
8103009900;Podlesí;394;V
8103010000;Podlesí;556;V
8103010100;Podlesí;756;V
8103010200;Podlesí;448;V
8103010300;Podlesí;505;V
8103010400;Podlesí;647;V
8103010500;Podlesí;758;V
8103010600;Podlesí;141;V
8103010700;Podlesí;411;V
8103010800;Podlesí;377;V
8103010900;Prostřední Suchá;261;V
8103011000;Prostřední Suchá;548;V
8103011100;Prostřední Suchá;411;V
8103011200;Prostřední Suchá;607;V
8103011400;Šumbark;738;V
8103011500;Šumbark;672;V
8103011620;Šumbark;118;V
8103011630;Šumbark;706;V
8103011700;Šumbark;210;V
8103011710;Šumbark;433;V
8103011800;Šumbark;426;V
8103011900;Šumbark;404;V
8103012000;Šumbark;494;V
8103012100;Šumbark;576;V
8103012200;Šumbark;354;V
8103012300;Šumbark;618;V
8103012400;Šumbark;758;V
8103012500;Šumbark;405;V
8103012600;Šumbark;617;V
8102000100;Baška;581;V
8102000400;Kunčičky u Bašky;425;V
8102016600;Palkovice;323;V
8102016700;Palkovice;516;V
8103013020;Horní Suchá;189;V
8103013010;Horní Suchá;437;V
8103013120;Horní Suchá;196;V
8103013110;Horní Suchá;295;V
8103013200;Horní Suchá;460;V
8106034200;Šenov;229;V
8106034300;Šenov;329;V
8106034400;Šenov;394;V
8106034500;Šenov;516;V
8102002710;Dobrá;709;V
8102002810;Dobrá;271;V
8102001000;Brušperk;649;V
8102001100;Brušperk;563;V
8102001200;Brušperk;421;V
8103000100;Albrechtice;366;V
8103000200;Albrechtice;503;V
8103000400;Albrechtice;189;V
8102017110;Paskov;289;V
8102017120;Paskov;111;V
8102017200;Paskov;415;V
8102017300;Paskov;436;V
8102011300;Janovice;598;V
8102013400;Metylovice;674;V
8102001300;Bruzovice;178;V
8102006200;Chlebovice;259;V
8102008300;Skalice;424;V
8102018800;Řepiště;660;V
8102019000;Sedliště;377;V
8102020900;Staříč;748;V
8102021300;Sviadnov;699;V
8102026000;Žabeň;287;V
8103000510;Životice;66;V
8103006700;Dolní Datyně;183;V
8103006900;Město;113;V
8103012720;Životice;205;V
8103012710;Životice;190;V
8103012810;Horní Bludovice;31;V
8103012820;Horní Bludovice;230;V
8103012910;Prostřední Bludovice;83;V
8103012930;Prostřední Bludovice;94;V
8103012920;Prostřední Bludovice;273;V
8103023600;Dolní Těrlicko;96;V
8103023700;Horní Těrlicko;555;V
8103023800;Horní Těrlicko;278;V
8106034600;Šenov;551;V
8102003500;Fryčovice;400;V
8102003600;Fryčovice;431;V
8102015600;Nošovice;331;V
8102015300;Nižní Lhoty;100;V
8102020300;Staré Město;506;V
8102025900;Vyšní Lhoty;197;V
8102018300;Raškovice;602;V
8102013700;Morávka;253;V
8103000310;Albrechtice;50;V
8103000320;Albrechtice;53;V
8103000520;Albrechtice;160;V
8106034700;Václavovice;669;V
8102013200;Lučina;442;V
8102019200;Soběšovice;294;V
8102003000;Dolní Domaslavice;215;V
8102017400;Pazderna;95;V
8102009720;Horní Domaslavice;117;V
8102009730;Horní Domaslavice;163;V
8102002500;Čeladná;106;V
8102002400;Čeladná;599;V
8103023400;Stonava;707;V
8103022400;Petřvald;683;V
8103022500;Petřvald;640;V
8103022600;Petřvald;276;V
8103022700;Petřvald;451;V
8103022800;Petřvald;356;V